1 10 20
432602 927954 525
509295 276030 449
976025 234787 525
576364 860371 525
360014 354833 379
319269 288962 384
211175 239316 443
205674 122977 383
289228 34932 443
579826 189027 470
137626 120314 344
555567 560855 359
759149 410225 509
976135 69787 525
943985 12106 525
754178 254447 509
63919 390322 443
681022 920184 525
212989 549103 470
86444 481952 449
490756 325536 449
246938 797829 509
854090 938100 476
701410 112058 509
145799 313925 443
476022 74198 449
708747 582315 509
573271 865419 525
211987 233500 443
705289 590153 509
102058 191907 383
948494 897723 507
879211 776534 525
124637 88541 354
849517 275554 525
21469 53024 340
898087 222788 525
203998 170652 365
99533 451655 449
267836 147285 443
915716 739617 525
82674 564482 470
295570 493986 449
146806 710937 509
50613 741673 509
253185 183730 443
775647 88698 509
818768 848605 525
958888 218335 525
565648 542673 452
119716 389396 443
625739 982994 525
668566 443599 509
151159 637256 509
967310 344553 525
797156 524970 509
241551 782668 509
965824 536464 525
736417 298651 509
720014 697879 504
458668 159239 449
771466 740175 468
473686 661130 509
322591 898382 525
159184 589735 470
567455 887273 525
718303 632507 504
630148 638478 416
831807 700119 504
871117 92662 525
119306 189528 383
823526 829244 419
449830 444913 369
100428 155388 375
907108 238308 525
409943 26443 443
638158 697484 442
487553 93387 449
907991 978979 507
780405 149203 509
968176 364162 525
736279 155209 509
105619 271195 443
783739 880111 525
880555 912829 476
608524 569552 434
828894 520008 509
206893 608898 470
848995 78303 525
154508 657937 509
202276 658169 509
413799 565091 470
917011 38379 525
65895 115440 354
112367 280471 443
516963 286166 470
677241 30154 509
109097 748028 509
393355 773315 509
171554 20657 383
