1 10 20
100 200 125
201 210 89
900 1000 174
1 1 1
1 2 2
2 2 2
2 3 8
3 3 8
1 100 119
51 100 119
1 1000 179
1 10000 262
1 100000 351
300 12345 268
90 6000 238
200 300 128
300 400 144
400 500 142
500 600 137
600 700 145
700 800 171
800 900 179
111 222 125
1234 4321 238
900 1000 174
1000 2000 182
2000 3000 217
3000 4000 238
4000 5000 215
5000 6000 236
6000 7000 262
7000 8000 252
8000 9000 247
9000 10000 260
10000 20000 279
20000 30000 308
30000 40000 324
40000 50000 314
50000 100000 351
100000 200000 383
200000 999999 525
2 1 2
3 1 8
3 2 8
5 1 8
100 10 119
10 1 20
200 100 125
210 201 89
1000 900 174
101 101 26
1011 1101 169
800 323 171
321 433 144
890 434 179
333 890 179
5454 8890 262
43434 899 324
323 6814 262
4934 434 238
3030 1010 217
3232 1111 217
9001 9999 260
8888 8008 234
4000 4000 114
9876 1234 262
8989 2121 262
3333 3829 238
2000 2010 144
1999 2000 113
1883 1902 175
2015 2019 113
456 654 145
999999 1000000 259
1000000 999999 259
8983 2222 262
79 2011 182
1 1600 182
33000 55000 340
37000 36000 249
55000 50000 340
101110 101001 297
111100 110101 292
100001 101011 341
111 222 125
212 121 125
333 666 145
999 10101 262
555 3535 217
888 872 148
870 992 179
40 215 125
12 21 21
3 9 20
9 81 116
1992 2015 144
1980 1992 113
2050 2001 157
3003 2003 217
9999 1111 262
3233 4343 238
7823 4322 262
43435 43211 226
443244 432433 400
66 69 28
747 700 171
2222 7667 262
1 80080 351
619 191 144
323 102 131
111 5 119
113 4 119
114 8 119
90000 70333 351
1 80001 351
45 20 112
39 84 116
20 20 8
100 100 26
3833 33327 308
9999 8889 260
9999 9998 92
4434 4444 184
23233 9009 279
1815 1980 175
1997 7991 262
123321 987789 525
4545 5555 210
1222 3285 217
4358 4323 184
4354 7564 262
4585 8399 262
4856 4538 197
67575 95649 351
57393 57493 260
47574 57593 340
45722 50055 314
58493 57499 273
38475 57493 340
45933 57565 340
47833 57594 340
68484 99783 351
29344 11122 308
32322 44944 324
49402 49444 265
32333 32323 148
90000 66669 351
90000 66696 351
90000 66966 351
90000 69666 351
90000 96666 333
90000 66666 351
75757 87777 351
57575 78777 351
75757 77877 351
57575 77787 351
75757 77778 351
57575 77777 351
10000 10101 224
11111 11211 237
12221 11211 250
12221 22222 279
21112 11211 279
21112 11211 279
22222 20202 269
88088 11811 351
36 36 22
1982 1982 100
333331 133333 443